{"name":"getUserListTest()","id":"[engine:junit-jupiter]/[class:com.siigo.api.features.UsersApiTest]/[method:getUserListTest()]","scenarioId":"[engine:junit-jupiter]/[class:com.siigo.api.features.UsersApiTest]","testCaseName":"com.siigo.api.features.UsersApiTest","methodName":"getUserListTest","testSteps":[{"number":1,"description":"Edison the api tester get users","duration":5743,"startTime":"2025-06-23T15:39:25.822448100-05:00[America/Bogota]","result":"SUCCESS","precondition":false,"level":0,"children":[{"number":2,"description":"Edison the API Tester executes a GET on the resource /users?page\u003d2","duration":5645,"startTime":"2025-06-23T15:39:25.894793200-05:00[America/Bogota]","result":"SUCCESS","precondition":false,"level":1,"children":[{"number":3,"description":"GET https://reqres.in/api/users?page\u003d2","duration":50,"startTime":"2025-06-23T15:39:31.479675900-05:00[America/Bogota]","result":"SUCCESS","restQuery":{"method":"GET","path":"https://reqres.in/api/users?page\u003d2","content":"","contentType":"application/json","requestHeaders":"Accept\u003d*/*\r\n\t\t\t\tContent-Type\u003dapplication/json","requestCookies":"","responseHeaders":"Date: Mon, 23 Jun 2025 20:39:32 GMT\r\nContent-Type: application/json; charset\u003dutf-8\r\nTransfer-Encoding: chunked\r\nConnection: keep-alive\r\nContent-Encoding: gzip\r\nReport-To: {\"group\":\"heroku-nel\",\"max_age\":3600,\"endpoints\":[{\"url\":\"https://nel.heroku.com/reports?ts\u003d1750704584\u0026sid\u003dc4c9725f-1ab0-44d8-820f-430df2718e11\u0026s\u003djCGEyBkoFwgMBD0ZN6MSqgYHN0W%2Bt8fgkPst0DrtOFE%3D\"}]}\r\nReporting-Endpoints: heroku-nel\u003dhttps://nel.heroku.com/reports?ts\u003d1750704584\u0026sid\u003dc4c9725f-1ab0-44d8-820f-430df2718e11\u0026s\u003djCGEyBkoFwgMBD0ZN6MSqgYHN0W%2Bt8fgkPst0DrtOFE%3D\r\nNel: {\"report_to\":\"heroku-nel\",\"max_age\":3600,\"success_fraction\":0.005,\"failure_fraction\":0.05,\"response_headers\":[\"Via\"]}\r\nX-Powered-By: Express\r\nAccess-Control-Allow-Origin: *\r\nRatelimit-Policy: 100;w\u003d60\r\nRatelimit-Limit: 100\r\nRatelimit-Remaining: 98\r\nRatelimit-Reset: 60\r\nEtag: W/\"440-ZjsmMKR8P3usr2uJZbOCGCxC3Uw\"\r\nVia: 1.1 vegur\r\nCache-Control: max-age\u003d14400\r\nCf-Cache-Status: HIT\r\nAge: 6588\r\nVary: Accept-Encoding\r\nServer: cloudflare\r\nCf-Ray: 9546cb9c9f90daa9-MIA\r\nserver-timing: cfL4;desc\u003d\"?proto\u003dTCP\u0026rtt\u003d56172\u0026min_rtt\u003d53453\u0026rtt_var\u003d25484\u0026sent\u003d7\u0026recv\u003d6\u0026lost\u003d0\u0026retrans\u003d0\u0026sent_bytes\u003d3106\u0026recv_bytes\u003d784\u0026delivery_rate\u003d58236\u0026cwnd\u003d252\u0026unsent_bytes\u003d0\u0026cid\u003d99337904608c8544\u0026ts\u003d261\u0026x\u003d0\"\r","responseCookies":"\r","responseBody":"{\n    \"page\": 2,\n    \"per_page\": 6,\n    \"total\": 12,\n    \"total_pages\": 2,\n    \"data\": [\n        {\n            \"id\": 7,\n            \"email\": \"michael.lawson@reqres.in\",\n            \"first_name\": \"Michael\",\n            \"last_name\": \"Lawson\",\n            \"avatar\": \"https://reqres.in/img/faces/7-image.jpg\"\n        },\n        {\n            \"id\": 8,\n            \"email\": \"lindsay.ferguson@reqres.in\",\n            \"first_name\": \"Lindsay\",\n            \"last_name\": \"Ferguson\",\n            \"avatar\": \"https://reqres.in/img/faces/8-image.jpg\"\n        },\n        {\n            \"id\": 9,\n            \"email\": \"tobias.funke@reqres.in\",\n            \"first_name\": \"Tobias\",\n            \"last_name\": \"Funke\",\n            \"avatar\": \"https://reqres.in/img/faces/9-image.jpg\"\n        },\n        {\n            \"id\": 10,\n            \"email\": \"byron.fields@reqres.in\",\n            \"first_name\": \"Byron\",\n            \"last_name\": \"Fields\",\n            \"avatar\": \"https://reqres.in/img/faces/10-image.jpg\"\n        },\n        {\n            \"id\": 11,\n            \"email\": \"george.edwards@reqres.in\",\n            \"first_name\": \"George\",\n            \"last_name\": \"Edwards\",\n            \"avatar\": \"https://reqres.in/img/faces/11-image.jpg\"\n        },\n        {\n            \"id\": 12,\n            \"email\": \"rachel.howell@reqres.in\",\n            \"first_name\": \"Rachel\",\n            \"last_name\": \"Howell\",\n            \"avatar\": \"https://reqres.in/img/faces/12-image.jpg\"\n        }\n    ],\n    \"support\": {\n        \"url\": \"https://contentcaddy.io?utm_source\u003dreqres\u0026utm_medium\u003djson\u0026utm_campaign\u003dreferral\",\n        \"text\": \"Tired of writing endless social media content? Let Content Caddy generate it for you.\"\n    }\n}","statusCode":200},"precondition":false,"level":2}]}]},{"number":4,"description":"Then The response code should be (200)","duration":14,"startTime":"2025-06-23T15:39:31.735570300-05:00[America/Bogota]","result":"SUCCESS","precondition":false,"level":0}],"userStory":{"id":"com.siigo.api.features.UsersApiTest","storyName":"UsersApiTest","displayName":"UsersApiTest","storyClassName":"com.siigo.api.features.UsersApiTest","path":"com.siigo.api.features.UsersApiTest","pathElements":[{"name":"com","description":"com"},{"name":"siigo","description":"siigo"},{"name":"api","description":"api"},{"name":"features","description":"features"},{"name":"UsersApiTest","description":"UsersApiTest"}],"narrative":"","type":"feature"},"title":"Get user list test","tags":[{"name":"com/siigo/api/features/UsersApiTest","type":"feature","displayName":"UsersApiTest"}],"startTime":"2025-06-23T15:39:25.346103300-05:00[America/Bogota]","duration":6134,"projectKey":"","driver":"","isManualTestingUpToDate":false,"manual":false,"testSource":"JUnit5","actors":[{"name":"Edison the API Tester","can":["call an API at https://reqres.in/api"]}],"order":0,"result":"SUCCESS"}